[
	{
		"name": "RayTracer",
		"descriptionFile": "RayTracer",
		"technos": ["C"],
		"descr": "Algorithme de lancer de rayon sur GPU avec interface graphique",
		"bck-img": "/images/projects/rt/logo.png",
		"type": "Infographie",
		"date": "09/06/2017"
	},
	{
		"name": "FDF",
		"descriptionFile": "FDF",
		"technos": ["C"],
		"descr": "Fil de Fer: interpolation de points en 3D",
		"bck-img": "/images/projects/fdf/fdf5.png",
		"type": "Infographie",
		"date": "19/01/2017"
	},
	{
		"name": "Fractol",
		"descriptionFile": "Fractol",
		"technos": ["C"],
		"descr": "Explorateur de fractales",
		"bck-img": "/images/projects/fractol/logo.png",
		"type": "Infographie",
		"date": "02/02/2017"
	},
	{
		"name": "Scop",
		"descriptionFile": "Scop",
		"technos": ["C", "OpenGL"],
		"descr": "Visualisateur basique de fichiers .obj",
		"bck-img": "/images/projects/scop/logo.png",
		"type": "Infographie",
		"date": "24/04/2018"
	},
	{
		"name": "HumanGL",
		"descriptionFile": "HumanGL",
		"technos": ["C++", "OpenGL"],
		"descr": "Humanoïde animé grâce à une stack matricielle",
		"bck-img": "/images/projects/humangl/logo.png",
		"type": "Infographie",
		"date": "28/07/2018"
	},
	{
		"name": "42Run",
		"descriptionFile": "42run",
		"technos": ["C++", "OpenGL"],
		"descr": "TempleRun like basique avec génération de terrain",
		"bck-img": "/images/projects/42run/logo.png",
		"type": "Infographie",
		"date": "28/06/2018"
	},
	{
		"name": "In the Shadows",
		"descriptionFile": "InTheShadows",
		"technos": ["C#", "Unity"],
		"descr": "Imitation du jeu Shadowmatic en Unity",
		"bck-img": "/images/projects/intheshadows/logo.png",
		"type": "Infographie",
		"date": "17/12/2018"
	},
	{
		"name": "ft_hangouts",
		"descriptionFile": "ft_hangouts",
		"technos": ["Java", "Android"],
		"descr": "Application de gestion d'appel et contacts",
		"bck-img": "/images/projects/ft_hangouts/logo.png",
		"type": "Android",
		"date": "18/10/2018"
	},
	{
		"name": "Red Tetris",
		"descriptionFile": "RedTetris",
		"technos": ["NodeJS", "React"],
		"descr": "Jeu de Tetris multijoueur",
		"bck-img": "/images/projects/redtetris/logo.png",
		"type": "Web",
		"date": "20/09/2018"
	},
	{
		"name": "ft_ssl_md5",
		"descriptionFile": "ft_ssl_md5",
		"technos": ["C"],
		"descr": "Implémentation des hash MD5, SHA256, SHA512 et Whirlpool",
		"bck-img": "/images/projects/ft_ssl_md5/logo.png",
		"type": "Algo / IA",
		"date": "17/11/2018"
	},
	{
		"name": "Expert System",
		"descriptionFile": "ExpertSystem",
		"technos": ["NodeJS"],
		"descr": "Implémentation d'un solveur de faits simples",
		"bck-img": "/images/projects/expertsystem/logo.png",
		"type": "Web",
		"date": "07/12/2018"
	},
	{
		"name": "Linear Regression",
		"descriptionFile": "LinearRegression",
		"technos": ["Python"],
		"descr": "Algorithme de prédiction basique de machine learning",
		"bck-img": "/images/projects/linearRegression/logo.png",
		"type": "Algo / IA",
		"date": "09/01/2019"
	},
	{
		"name": "DSLR",
		"descriptionFile": "DSLR",
		"technos": ["Python"],
		"descr": "Algorithme de régression Logistique",
		"bck-img": "/images/projects/dslr/logo.png",
		"type": "Algo / IA",
		"date": "03/03/2019"
	},
	{
		"name": "cloud-1",
		"descriptionFile": "cloud1",
		"technos": ["AWS"],
		"descr": "Initiation à AWS",
		"bck-img": "/images/projects/cloud1/logo.png",
		"type": "Web",
		"date": "01/11/2018"
	},
	{
		"name": "N-Puzzle",
		"descriptionFile": "N-Puzzle",
		"technos": ["C#"],
		"descr": "Solveur de taquins de taille variées",
		"bck-img": "/images/projects/n-puzzle/logo.png",
		"type": "Algo / IA",
		"date": "08/02/2019"
	},
	{
		"name": "Gomoku",
		"descriptionFile": "Gomoku",
		"technos": ["C++"],
		"descr": "Jeu de Gomoku Humain contre IA",
		"bck-img": "/images/projects/gomoku/logo.png",
		"type": "Algo / IA",
		"date": "26/08/2019"
	},
	{
		"name": "Particle System",
		"descriptionFile": "ParticleSystem",
		"technos": ["C++", "OpenCL", "OpenGL"],
		"descr": "Intéropérabilité OpenGL - OpenCL",
		"bck-img": "/images/projects/particleSystem/logo.png",
		"type": "Infographie",
		"date": "25/07/2019"
	},
	{
		"name": "ft_vox",
		"descriptionFile": "ft_vox",
		"technos": ["C++", "OpenGL", "OpenCL"],
		"descr": "Moteur voxel type Minecraft",
		"bck-img": "/images/projects/ft_vox/logo.png",
		"type": "Infographie",
		"date": "11/09/2019"
	},
	{
		"name": "Music Room",
		"descriptionFile": "MusicRoom",
		"technos": ["NodeJS", "Android"],
		"descr": "Application Android / API NodeJS",
		"bck-img": "/images/projects/musicroom/logo.png",
		"type": "Android",
		"date": "16/06/2019"
	},
	{
		"name": "Piscine Unity",
		"descriptionFile": "PiscineUnity",
		"technos": ["C#", "Unity"],
		"descr": "Un projet Unity par jour pendant deux semaines",
		"bck-img": "/images/projects/piscineunity/logo.png",
		"type": "Infographie",
		"date": "16/10/2018"
	},
	{
		"name": "Nibbler",
		"descriptionFile": "Nibbler",
		"technos": ["C++"],
		"descr": "Jeu Snake avec trois interfaces graphiques chargées au runtime (librairies dynamiques)",
		"bck-img": "/images/projects/nibbler/logo.png",
		"type": "Infographie",
		"date": "23/09/2019"
	}
]
